
<svg width="808px" height="239px" viewBox="0 0 808 239" version="1.1" xmlns="http://www.w3.org/2000/svg" xmlns:xlink="http://www.w3.org/1999/xlink">
    <defs>
        <path d="M258.796925,130.87491 C256.190976,130.832123 253.622153,130.531337 251.128301,130.030251 C249.532303,129.709569 248.305373,129.372371 247.520235,129.107966 C243.724896,127.829841 241.684291,123.716985 242.962417,119.921646 C244.240543,116.126307 248.353398,114.085703 252.148737,115.363828 C252.380874,115.442003 253.02371,115.618675 253.985183,115.811862 C256.566728,116.330568 259.275549,116.513761 261.915236,116.235068 C263.511837,108.497609 264.011853,106.118889 264.945115,101.821071 C273.14412,64.0633755 281.032927,42.5880927 294.504488,30.7373258 C300.347101,25.5976505 306.957819,21.8006286 314.162477,19.2252202 C327.24996,14.5469122 340.941304,14.1693984 353.609868,16.2879565 C356.332972,16.74334 358.369228,17.2117311 359.577905,17.5540248 C363.431142,18.6452498 365.670194,22.6535277 364.578969,26.5067641 C363.487744,30.3600005 359.479466,32.5990532 355.62623,31.5078282 C355.498903,31.4717696 355.152319,31.3824652 354.605675,31.256723 C353.632996,31.0329819 352.497237,30.805845 351.217827,30.5918899 C340.780482,28.8464574 329.458769,29.158633 319.044111,32.8815016 C313.518075,34.8568624 308.506273,37.7355089 304.08337,41.6262827 C293.873474,50.6078033 286.616987,70.3617514 279.117393,104.898552 C278.468428,107.887139 278.030867,109.939728 277.271841,113.591707 C280.130188,113.584859 282.948356,113.893324 285.676785,114.441544 C287.272784,114.762226 288.499713,115.099424 289.284852,115.363829 C293.080191,116.641954 295.120795,120.75481 293.842669,124.550149 C292.564543,128.345488 288.451687,130.386092 284.656349,129.107966 C284.424212,129.029791 283.781376,128.85312 282.819903,128.659933 C279.994146,128.092157 277.015892,127.926376 274.142733,128.328327 C273.109559,133.318813 272.635001,135.555712 271.867209,139.091514 C263.668204,176.849209 255.779396,198.324492 242.307836,210.175259 C236.465223,215.314934 229.854505,219.111956 222.649846,221.687365 C209.562364,226.365673 195.87102,226.743186 183.202456,224.624628 C180.479352,224.169245 178.443096,223.700854 177.234419,223.35856 C173.381182,222.267335 171.14213,218.259057 172.233355,214.405821 C173.32458,210.552584 177.332858,208.313532 181.186094,209.404757 C181.313421,209.440815 181.660005,209.53012 182.206649,209.655862 C183.179328,209.879603 184.315087,210.10674 185.594497,210.320695 C196.031842,212.066127 207.353555,211.753952 217.768213,208.031083 C223.294249,206.055722 228.306051,203.177076 232.728954,199.286302 C242.93885,190.304782 250.195336,170.550833 257.694931,136.014033 C258.101566,134.141414 258.4252,132.636282 258.796925,130.87491 Z M139.430391,0 C189.69431,0 235.365187,22.906816 260.153468,59.4612811 C261.758938,61.8288159 261.141163,65.049573 258.773628,66.6550435 C256.406093,68.260514 253.185336,67.6427389 251.579866,65.2752041 C228.770414,31.6388525 186.343274,10.3589744 139.430391,10.3589744 C67.975159,10.3589744 10.3589744,59.2621115 10.3589744,119.128205 C10.3589744,178.994299 67.975159,227.897436 139.430391,227.897436 C146.469538,227.897436 153.435942,227.422402 160.284837,226.484096 C163.118916,226.095824 165.731147,228.078542 166.119419,230.912621 C166.50769,233.7467 164.524972,236.358931 161.690894,236.747202 C154.376057,237.749343 146.939881,238.25641 139.430391,238.25641 C62.5961695,238.25641 0,185.12639 0,119.128205 C0,53.1300204 62.5961695,0 139.430391,0 Z M533.487179,238.25641 C423.866475,238.25641 326.087211,210.5604 282.599785,168.076612 C280.553595,166.077646 280.515313,162.798399 282.514279,160.75221 C284.513245,158.70602 287.792491,158.667738 289.838681,160.666704 C331.031352,200.908697 426.313631,227.897436 533.487179,227.897436 C679.657939,227.897436 797.641026,177.981515 797.641026,119.128205 C797.641026,60.2748957 679.657939,10.3589744 533.487179,10.3589744 C480.306042,10.3589744 429.471605,16.9453466 386.199774,29.0888699 C383.445619,29.861778 380.586369,28.25566 379.813461,25.501505 C379.040553,22.74735 380.646671,19.8881005 383.400826,19.1151925 C427.611803,6.70811351 479.385854,0 533.487179,0 C684.813805,0 808,52.1172361 808,119.128205 C808,186.139174 684.813805,238.25641 533.487179,238.25641 Z" id="path-1"></path>
        <linearGradient x1="66.5132004%" y1="-11.7486021%" x2="4.99543461%" y2="82.2458088%" id="linearGradient-3">
            <stop stop-color="#63B132" offset="0%"></stop>
            <stop stop-color="#70BD38" offset="16.7729592%"></stop>
            <stop stop-color="#91DC47" offset="43.9067077%"></stop>
            <stop stop-color="#8AADF4" offset="58.4562341%"></stop>
            <stop stop-color="#5881D8" offset="100%"></stop>
        </linearGradient>
    </defs>
    <g id="Page-1" stroke="none" stroke-width="1" fill="none" fill-rule="evenodd">
        <g id="re-frame-v1" transform="translate(-96.000000, -56.000000)">
            <g id="v1-re-frame-logo" transform="translate(96.000000, 56.000000)">
                <g id="Rectangle">
                    <mask id="mask-2" fill="white">
                        <use xlink:href="#path-1"></use>
                    </mask>
                    <use id="Mask" fill="#91DC47" fill-rule="nonzero" xlink:href="#path-1"></use>
                    <rect fill="url(#linearGradient-3)" mask="url(#mask-2)" x="-39.3641026" y="-43.5076923" width="873.364103" height="323.2"></rect>
                </g>
                <text id="rame-copy" font-family="Helvetica" font-size="157.386248" font-weight="normal" fill="#273B66">
                    <tspan x="329" y="168">rame</tspan>
                </text>
                <text id="re" font-family="Helvetica" font-size="157.386248" font-weight="normal" fill="#273B66">
                    <tspan x="71" y="168">re </tspan>
                </text>
            </g>
        </g>
    </g>
</svg>